<?xml version="1.0" encoding="UTF-8" standalone="no"?>
<svg width="22px" height="22px" viewBox="0 0 22 22" version="1.1" xmlns="http://www.w3.org/2000/svg" xmlns:xlink="http://www.w3.org/1999/xlink">
    <!-- Generator: Sketch 3.8.3 (29802) - http://www.bohemiancoding.com/sketch -->
    <title>Staff_Icon</title>
    <desc>Created with Sketch.</desc>
    <defs></defs>
    <g id="Symbols" stroke="none" stroke-width="1" fill="none" fill-rule="evenodd">
        <g id="Staff_Icon" transform="translate(1.000000, 1.000000)" stroke="#3A405B">
            <g id="Shape">
                <path d="M14.1304348,4.08695652 C14.2173913,1.7826087 12.2608696,0 10,0 C7.73913043,0 5.73913043,1.82608696 5.86956522,4.08695652 C5.91304348,4.56521739 6.34782609,6.82608696 6.34782609,6.82608696 C6.69565217,8.7826087 8,10.4347826 10,10.4347826 C12,10.4347826 13.3043478,8.7826087 13.6521739,6.7826087 C13.6521739,6.7826087 14.0869565,4.52173913 14.1304348,4.08695652 L14.1304348,4.08695652 Z"></path>
                <path d="M20,20 L0,20 L0.47826087,16.4347826 C0.695652174,15.2608696 1.73913043,14.5652174 2.91304348,14.3043478 L10,13.0434783 L17.0869565,14.3043478 C18.2608696,14.5652174 19.3043478,15.2608696 19.4782609,16.4347826 L20,20 L20,20 Z"></path>
            </g>
        </g>
    </g>
</svg>